…
The next step requires to use the library `dplyr`. Which is the next iteration of `plyr`, a set of tools for splitting, applying and combining data. `dplyr` "provides a flexible grammar of data manipulation...focused on tools for working with data frames".

    > install.packages("dplyr")

This might ask to restart the `R` session before installing. Then try again. Now load the library.

    > library(dplyr)

## US States in the data set

I wanted to see which states were included in the data set I loaded.

    > select(ozone, State.Name) %>% unique

    # A tibble: 52 x 1
    State.Name          
       <chr>               
     1 Alabama             
     2 Alaska              
     3 Arizona             
     4 Arkansas            
     5 California          
     6 Colorado            
     7 Connecticut         
     8 Delaware            
     9 District Of Columbia
    10 Florida             
    # ... with 42 more rows

## Ozone levels in Florida

I filtered the data set to see the ozone levels in Florida on July 9, 2016 at 6am for all counties

    > filter(ozone, State.Name == "Florida", 
    Date.Local == "2016-07-09", 
    Time.Local == "06:00") %>% select(County.Name, 
        Sample.Measurement)

The result was:

    # A tibble: 58 x 2
       County.Name Sample.Measurement
             <chr>              <dbl>
     1     Alachua              0.002
     2       Baker              0.001
     3         Bay              0.017
     4     Brevard              0.014
     5     Brevard              0.016
     6     Broward              0.005
     7     Broward              0.004
     8     Broward              0.004
     9     Broward              0.008
    10     Collier              0.004
    # ... with 48 more rows
…
